%YAML 1.1
%TAG !u! tag:unity3d.com,2011:
--- !u!162 &1
EditorUserSettings:
  m_ObjectHideFlags: 0
  serializedVersion: 4
  m_ConfigSettings:
    RecentlyUsedSceneGuid-0:
      value: 530351035c035e0e5a56097b487709444f4f40732a2a7f33797f1937b6b26369
      flags: 0
    RecentlyUsedSceneGuid-1:
      value: 0255075650040d5f5b565e7540270e4410154c7f287173327e2a4a61b5b13261
      flags: 0
    RecentlyUsedSceneGuid-2:
      value: 0000000450500d5d080a5c7b15270f44174e1b7a787075667a71456ae7b23261
      flags: 0
    RecentlyUsedSceneGuid-3:
      value: 0506505e07545f09545e082313740e44444f4f792e2a25332b2c4436b7e56539
      flags: 0
    RecentlyUsedSceneGuid-4:
      value: 525405565200585d5b08547412265e44424e4079747a2334292a1b32e3b1633b
      flags: 0
    RecentlyUsedSceneGuid-5:
      value: 5a06575f57575d095e0c092444220a44454f4973757c7f687b781b66b5b26c3e
      flags: 0
    RecentlyUsedSceneGuid-6:
      value: 5a550c5151510d5f0b0b082012740e44414e1c797e2b70667c7a1c67b5b46c3c
      flags: 0
    RecentlyUsedSceneGuid-7:
      value: 0154555e03055d5f5a57547a417a5e44124e1d727c2d7f67292d4460e4b5326a
      flags: 0
    vcSharedLogLevel:
      value: 0d5e400f0650
      flags: 0
  m_VCAutomaticAdd: 1
  m_VCDebugCom: 0
  m_VCDebugCmd: 0
  m_VCDebugOut: 0
  m_SemanticMergeMode: 2
  m_DesiredImportWorkerCount: 1
  m_StandbyImportWorkerCount: 1
  m_IdleImportWorkerShutdownDelay: 60000
  m_VCShowFailedCheckout: 1
  m_VCOverwriteFailedCheckoutAssets: 1
  m_VCProjectOverlayIcons: 1
  m_VCHierarchyOverlayIcons: 1
  m_VCOtherOverlayIcons: 1
  m_VCAllowAsyncUpdate: 1
  m_ArtifactGarbageCollection: 1
