%YAML 1.1
%TAG !u! tag:unity3d.com,2011:
--- !u!1045 &1
EditorBuildSettings:
  m_ObjectHideFlags: 0
  serializedVersion: 2
  m_Scenes:
  - enabled: 1
    path: Assets/MeuProjeto/Scenes/CenaMenu.unity
    guid: 97c92b423bef4a543819949861f5728f
  - enabled: 1
    path: Assets/MeuProjeto/Scenes/CenaTutorial.unity
    guid: 9d874dddfedbb71479d32c6613a4748d
  - enabled: 1
    path: Assets/MeuProjeto/Scenes/CenaRodrigo.unity
    guid: bea8f04d798819a4d9e80e97dd93f5f2
  m_configObjects: {}
