%YAML 1.1
%TAG !u! tag:unity3d.com,2011:
--- !u!74 &7400000
AnimationClip:
  m_ObjectHideFlags: 0
  m_CorrespondingSourceObject: {fileID: 0}
  m_PrefabInstance: {fileID: 0}
  m_PrefabAsset: {fileID: 0}
  m_Name: PainelPrimarioAnim
  serializedVersion: 6
  m_Legacy: 0
  m_Compressed: 0
  m_UseHighQualityCurve: 1
  m_RotationCurves: []
  m_CompressedRotationCurves: []
  m_EulerCurves: []
  m_PositionCurves: []
  m_ScaleCurves: []
  m_FloatCurves:
  - curve:
      serializedVersion: 2
      m_Curve:
      - serializedVersion: 3
        time: 0
        value: 0
        inSlope: Infinity
        outSlope: Infinity
        tangentMode: 103
        weightedMode: 0
        inWeight: 0
        outWeight: 0
      - serializedVersion: 3
        time: 0.6166667
        value: 1
        inSlope: Infinity
        outSlope: Infinity
        tangentMode: 103
        weightedMode: 0
        inWeight: 0
        outWeight: 0
      - serializedVersion: 3
        time: 2.0166667
        value: 1
        inSlope: Infinity
        outSlope: Infinity
        tangentMode: 103
        weightedMode: 0
        inWeight: 0
        outWeight: 0
      m_PreInfinity: 2
      m_PostInfinity: 2
      m_RotationOrder: 4
    attribute: m_IsActive
    path: BtnJogar
    classID: 1
    script: {fileID: 0}
  - curve:
      serializedVersion: 2
      m_Curve:
      - serializedVersion: 3
        time: 0.6166667
        value: 1
        inSlope: 0
        outSlope: 0
        tangentMode: 136
        weightedMode: 0
        inWeight: 0.33333334
        outWeight: 0.33333334
      - serializedVersion: 3
        time: 2.0166667
        value: 1
        inSlope: 0
        outSlope: 0
        tangentMode: 136
        weightedMode: 0
        inWeight: 0.33333334
        outWeight: 0.33333334
      m_PreInfinity: 2
      m_PostInfinity: 2
      m_RotationOrder: 4
    attribute: m_Color.r
    path: BtnJogar/Text
    classID: 114
    script: {fileID: 11500000, guid: 5f7201a12d95ffc409449d95f23cf332, type: 3}
  - curve:
      serializedVersion: 2
      m_Curve:
      - serializedVersion: 3
        time: 0.6166667
        value: 1
        inSlope: 0
        outSlope: 0
        tangentMode: 136
        weightedMode: 0
        inWeight: 0.33333334
        outWeight: 0.33333334
      - serializedVersion: 3
        time: 2.0166667
        value: 1
        inSlope: 0
        outSlope: 0
        tangentMode: 136
        weightedMode: 0
        inWeight: 0.33333334
        outWeight: 0.33333334
      m_PreInfinity: 2
      m_PostInfinity: 2
      m_RotationOrder: 4
    attribute: m_Color.g
    path: BtnJogar/Text
    classID: 114
    script: {fileID: 11500000, guid: 5f7201a12d95ffc409449d95f23cf332, type: 3}
  - curve:
      serializedVersion: 2
      m_Curve:
      - serializedVersion: 3
        time: 0.6166667
        value: 1
        inSlope: 0
        outSlope: 0
        tangentMode: 136
        weightedMode: 0
        inWeight: 0.33333334
        outWeight: 0.33333334
      - serializedVersion: 3
        time: 2.0166667
        value: 1
        inSlope: 0
        outSlope: 0
        tangentMode: 136
        weightedMode: 0
        inWeight: 0.33333334
        outWeight: 0.33333334
      m_PreInfinity: 2
      m_PostInfinity: 2
      m_RotationOrder: 4
    attribute: m_Color.b
    path: BtnJogar/Text
    classID: 114
    script: {fileID: 11500000, guid: 5f7201a12d95ffc409449d95f23cf332, type: 3}
  - curve:
      serializedVersion: 2
      m_Curve:
      - serializedVersion: 3
        time: 0.6166667
        value: 0
        inSlope: 0
        outSlope: 0
        tangentMode: 136
        weightedMode: 0
        inWeight: 0.33333334
        outWeight: 0.33333334
      - serializedVersion: 3
        time: 0.9166667
        value: 1
        inSlope: 0
        outSlope: 0
        tangentMode: 136
        weightedMode: 0
        inWeight: 0.33333334
        outWeight: 0.33333334
      - serializedVersion: 3
        time: 2.0166667
        value: 1
        inSlope: 0
        outSlope: 0
        tangentMode: 136
        weightedMode: 0
        inWeight: 0.33333334
        outWeight: 0.33333334
      m_PreInfinity: 2
      m_PostInfinity: 2
      m_RotationOrder: 4
    attribute: m_Color.a
    path: BtnJogar/Text
    classID: 114
    script: {fileID: 11500000, guid: 5f7201a12d95ffc409449d95f23cf332, type: 3}
  m_PPtrCurves:
  - curve:
    - time: 0
      value: {fileID: 21300000, guid: 5fdc8d0bd06d3b44ab747c1fd91ab452, type: 3}
    - time: 0.033333335
      value: {fileID: 21300000, guid: d958062544e99d345bdcc72fb5eba2b8, type: 3}
    - time: 0.11666667
      value: {fileID: 21300000, guid: eac60d9a69ebb7345a0b335976638dc1, type: 3}
    - time: 0.15
      value: {fileID: 21300000, guid: 5e9b68a9841a7f44dad450ebd3655d33, type: 3}
    - time: 0.18333334
      value: {fileID: 21300000, guid: cc6afc796c492c944aaa1803d2625eb6, type: 3}
    - time: 0.21666667
      value: {fileID: 21300000, guid: c9b8c08b21ecf1243adb3cae259e992e, type: 3}
    - time: 0.28333333
      value: {fileID: 21300000, guid: 03847a80087215c48b4d246b0ca86bf3, type: 3}
    - time: 0.35
      value: {fileID: 21300000, guid: 37cc8223dcae00c4ea66dadccc77f419, type: 3}
    - time: 0.38333333
      value: {fileID: 21300000, guid: 5cc96497befc62b48905132466cb8d42, type: 3}
    - time: 0.41666666
      value: {fileID: 21300000, guid: 3495741c1f3647a42b16e07fcbedbd26, type: 3}
    - time: 0.46666667
      value: {fileID: 21300000, guid: 01b1e23bded2d72458d6aa35c4759279, type: 3}
    - time: 0.53333336
      value: {fileID: 21300000, guid: cbbb3c775c7edfd4aab1b4e81727f240, type: 3}
    - time: 0.56666666
      value: {fileID: 21300000, guid: da3736816734b934a8117ee5e36b2802, type: 3}
    - time: 0.6
      value: {fileID: 21300000, guid: 02201e987dd2b4c46ade246e419879e2, type: 3}
    - time: 0.6666667
      value: {fileID: 21300000, guid: ae874e16acb02bf489335c4a1b3fae97, type: 3}
    - time: 0.71666664
      value: {fileID: 21300000, guid: fc04bde611e0b0941bb43ec020b985da, type: 3}
    - time: 0.8
      value: {fileID: 21300000, guid: dd168bb2fcf82774cbe71884b83d661b, type: 3}
    - time: 0.85
      value: {fileID: 21300000, guid: 8722c588dd938aa4b9eb2d9deb89e156, type: 3}
    - time: 0.9166667
      value: {fileID: 21300000, guid: 3928d97123fe7c64c9465d0a8d96469e, type: 3}
    - time: 0.95
      value: {fileID: 21300000, guid: 102e8f4f787e35c44a56f9066ca58ec2, type: 3}
    - time: 1.0166667
      value: {fileID: 21300000, guid: 135ae83061fb88746920e8b6d7a1125d, type: 3}
    - time: 1.05
      value: {fileID: 21300000, guid: 82a22cba578416f4b8d36f0ae5f0dc2a, type: 3}
    - time: 1.0833334
      value: {fileID: 21300000, guid: f9f79e4665899a846be2255bc381efd7, type: 3}
    - time: 1.15
      value: {fileID: 21300000, guid: a359260a565581541ac584fd6af28d4e, type: 3}
    - time: 1.2
      value: {fileID: 21300000, guid: c41b078b62f6ad246a64af77c3476d63, type: 3}
    - time: 1.2333333
      value: {fileID: 21300000, guid: 429717cda3252db409653fbccc3d8117, type: 3}
    - time: 1.2833333
      value: {fileID: 21300000, guid: 265becbce8a8ebc4286f9a882551a725, type: 3}
    - time: 1.3333334
      value: {fileID: 21300000, guid: 98ab9d7528b28d04bbb13121af826354, type: 3}
    - time: 1.4
      value: {fileID: 21300000, guid: 4d6fba1eedd133b4aae3947617bd6886, type: 3}
    - time: 1.4333333
      value: {fileID: 21300000, guid: 6eedec1ebff544549b9d4ce15cd154fe, type: 3}
    - time: 1.4666667
      value: {fileID: 21300000, guid: e44e15fbaf8443244a49d47a82414c59, type: 3}
    - time: 1.5333333
      value: {fileID: 21300000, guid: 21ca5621b63ad8f4d9102754e38165ba, type: 3}
    - time: 1.5833334
      value: {fileID: 21300000, guid: 6a07ec8f2b672b34e98179f72b26ca22, type: 3}
    - time: 1.6166667
      value: {fileID: 21300000, guid: 8785c59097b7fc8419abd48cfee53f42, type: 3}
    - time: 1.65
      value: {fileID: 21300000, guid: 3e57e5be064e43e48b2a8c8b6b7578ea, type: 3}
    - time: 1.7166667
      value: {fileID: 21300000, guid: 804c84e93e2358b40959badcc97f7526, type: 3}
    - time: 1.8166667
      value: {fileID: 21300000, guid: 75350cf02215c87408899d85f88a55a9, type: 3}
    - time: 1.85
      value: {fileID: 21300000, guid: 2fb8fe255b7d23c40b1ae1715844618e, type: 3}
    - time: 1.8833333
      value: {fileID: 21300000, guid: 0c16a71568af87e458da7ecab5e6310b, type: 3}
    - time: 1.9666667
      value: {fileID: 21300000, guid: 4a9863128527a19469387b67d320f834, type: 3}
    - time: 2
      value: {fileID: 21300000, guid: 8bf48a9f609cb4e4094a6c7e76610879, type: 3}
    attribute: m_Sprite
    path: 
    classID: 114
    script: {fileID: 11500000, guid: fe87c0e1cc204ed48ad3b37840f39efc, type: 3}
  m_SampleRate: 60
  m_WrapMode: 0
  m_Bounds:
    m_Center: {x: 0, y: 0, z: 0}
    m_Extent: {x: 0, y: 0, z: 0}
  m_ClipBindingConstant:
    genericBindings:
    - serializedVersion: 2
      path: 3660623877
      attribute: 2086281974
      script: {fileID: 0}
      typeID: 1
      customType: 0
      isPPtrCurve: 0
    - serializedVersion: 2
      path: 3043004866
      attribute: 304273561
      script: {fileID: 11500000, guid: 5f7201a12d95ffc409449d95f23cf332, type: 3}
      typeID: 114
      customType: 0
      isPPtrCurve: 0
    - serializedVersion: 2
      path: 0
      attribute: 2015549526
      script: {fileID: 11500000, guid: fe87c0e1cc204ed48ad3b37840f39efc, type: 3}
      typeID: 114
      customType: 0
      isPPtrCurve: 1
    - serializedVersion: 2
      path: 3043004866
      attribute: 2526845255
      script: {fileID: 11500000, guid: 5f7201a12d95ffc409449d95f23cf332, type: 3}
      typeID: 114
      customType: 0
      isPPtrCurve: 0
    - serializedVersion: 2
      path: 3043004866
      attribute: 4215373228
      script: {fileID: 11500000, guid: 5f7201a12d95ffc409449d95f23cf332, type: 3}
      typeID: 114
      customType: 0
      isPPtrCurve: 0
    - serializedVersion: 2
      path: 3043004866
      attribute: 2334886179
      script: {fileID: 11500000, guid: 5f7201a12d95ffc409449d95f23cf332, type: 3}
      typeID: 114
      customType: 0
      isPPtrCurve: 0
    pptrCurveMapping:
    - {fileID: 21300000, guid: 5fdc8d0bd06d3b44ab747c1fd91ab452, type: 3}
    - {fileID: 21300000, guid: d958062544e99d345bdcc72fb5eba2b8, type: 3}
    - {fileID: 21300000, guid: eac60d9a69ebb7345a0b335976638dc1, type: 3}
    - {fileID: 21300000, guid: 5e9b68a9841a7f44dad450ebd3655d33, type: 3}
    - {fileID: 21300000, guid: cc6afc796c492c944aaa1803d2625eb6, type: 3}
    - {fileID: 21300000, guid: c9b8c08b21ecf1243adb3cae259e992e, type: 3}
    - {fileID: 21300000, guid: 03847a80087215c48b4d246b0ca86bf3, type: 3}
    - {fileID: 21300000, guid: 37cc8223dcae00c4ea66dadccc77f419, type: 3}
    - {fileID: 21300000, guid: 5cc96497befc62b48905132466cb8d42, type: 3}
    - {fileID: 21300000, guid: 3495741c1f3647a42b16e07fcbedbd26, type: 3}
    - {fileID: 21300000, guid: 01b1e23bded2d72458d6aa35c4759279, type: 3}
    - {fileID: 21300000, guid: cbbb3c775c7edfd4aab1b4e81727f240, type: 3}
    - {fileID: 21300000, guid: da3736816734b934a8117ee5e36b2802, type: 3}
    - {fileID: 21300000, guid: 02201e987dd2b4c46ade246e419879e2, type: 3}
    - {fileID: 21300000, guid: ae874e16acb02bf489335c4a1b3fae97, type: 3}
    - {fileID: 21300000, guid: fc04bde611e0b0941bb43ec020b985da, type: 3}
    - {fileID: 21300000, guid: dd168bb2fcf82774cbe71884b83d661b, type: 3}
    - {fileID: 21300000, guid: 8722c588dd938aa4b9eb2d9deb89e156, type: 3}
    - {fileID: 21300000, guid: 3928d97123fe7c64c9465d0a8d96469e, type: 3}
    - {fileID: 21300000, guid: 102e8f4f787e35c44a56f9066ca58ec2, type: 3}
    - {fileID: 21300000, guid: 135ae83061fb88746920e8b6d7a1125d, type: 3}
    - {fileID: 21300000, guid: 82a22cba578416f4b8d36f0ae5f0dc2a, type: 3}
    - {fileID: 21300000, guid: f9f79e4665899a846be2255bc381efd7, type: 3}
    - {fileID: 21300000, guid: a359260a565581541ac584fd6af28d4e, type: 3}
    - {fileID: 21300000, guid: c41b078b62f6ad246a64af77c3476d63, type: 3}
    - {fileID: 21300000, guid: 429717cda3252db409653fbccc3d8117, type: 3}
    - {fileID: 21300000, guid: 265becbce8a8ebc4286f9a882551a725, type: 3}
    - {fileID: 21300000, guid: 98ab9d7528b28d04bbb13121af826354, type: 3}
    - {fileID: 21300000, guid: 4d6fba1eedd133b4aae3947617bd6886, type: 3}
    - {fileID: 21300000, guid: 6eedec1ebff544549b9d4ce15cd154fe, type: 3}
    - {fileID: 21300000, guid: e44e15fbaf8443244a49d47a82414c59, type: 3}
    - {fileID: 21300000, guid: 21ca5621b63ad8f4d9102754e38165ba, type: 3}
    - {fileID: 21300000, guid: 6a07ec8f2b672b34e98179f72b26ca22, type: 3}
    - {fileID: 21300000, guid: 8785c59097b7fc8419abd48cfee53f42, type: 3}
    - {fileID: 21300000, guid: 3e57e5be064e43e48b2a8c8b6b7578ea, type: 3}
    - {fileID: 21300000, guid: 804c84e93e2358b40959badcc97f7526, type: 3}
    - {fileID: 21300000, guid: 75350cf02215c87408899d85f88a55a9, type: 3}
    - {fileID: 21300000, guid: 2fb8fe255b7d23c40b1ae1715844618e, type: 3}
    - {fileID: 21300000, guid: 0c16a71568af87e458da7ecab5e6310b, type: 3}
    - {fileID: 21300000, guid: 4a9863128527a19469387b67d320f834, type: 3}
    - {fileID: 21300000, guid: 8bf48a9f609cb4e4094a6c7e76610879, type: 3}
  m_AnimationClipSettings:
    serializedVersion: 2
    m_AdditiveReferencePoseClip: {fileID: 0}
    m_AdditiveReferencePoseTime: 0
    m_StartTime: 0
    m_StopTime: 2.0166667
    m_OrientationOffsetY: 0
    m_Level: 0
    m_CycleOffset: 0
    m_HasAdditiveReferencePose: 0
    m_LoopTime: 0
    m_LoopBlend: 0
    m_LoopBlendOrientation: 0
    m_LoopBlendPositionY: 0
    m_LoopBlendPositionXZ: 0
    m_KeepOriginalOrientation: 0
    m_KeepOriginalPositionY: 1
    m_KeepOriginalPositionXZ: 0
    m_HeightFromFeet: 0
    m_Mirror: 0
  m_EditorCurves:
  - curve:
      serializedVersion: 2
      m_Curve:
      - serializedVersion: 3
        time: 0
        value: 0
        inSlope: Infinity
        outSlope: Infinity
        tangentMode: 103
        weightedMode: 0
        inWeight: 0
        outWeight: 0
      - serializedVersion: 3
        time: 0.6166667
        value: 1
        inSlope: Infinity
        outSlope: Infinity
        tangentMode: 103
        weightedMode: 0
        inWeight: 0
        outWeight: 0
      - serializedVersion: 3
        time: 2.0166667
        value: 1
        inSlope: Infinity
        outSlope: Infinity
        tangentMode: 103
        weightedMode: 0
        inWeight: 0
        outWeight: 0
      m_PreInfinity: 2
      m_PostInfinity: 2
      m_RotationOrder: 4
    attribute: m_IsActive
    path: BtnJogar
    classID: 1
    script: {fileID: 0}
  - curve:
      serializedVersion: 2
      m_Curve:
      - serializedVersion: 3
        time: 0.6166667
        value: 1
        inSlope: 0
        outSlope: 0
        tangentMode: 136
        weightedMode: 0
        inWeight: 0.33333334
        outWeight: 0.33333334
      - serializedVersion: 3
        time: 2.0166667
        value: 1
        inSlope: 0
        outSlope: 0
        tangentMode: 136
        weightedMode: 0
        inWeight: 0.33333334
        outWeight: 0.33333334
      m_PreInfinity: 2
      m_PostInfinity: 2
      m_RotationOrder: 4
    attribute: m_Color.r
    path: BtnJogar/Text
    classID: 114
    script: {fileID: 11500000, guid: 5f7201a12d95ffc409449d95f23cf332, type: 3}
  - curve:
      serializedVersion: 2
      m_Curve:
      - serializedVersion: 3
        time: 0.6166667
        value: 1
        inSlope: 0
        outSlope: 0
        tangentMode: 136
        weightedMode: 0
        inWeight: 0.33333334
        outWeight: 0.33333334
      - serializedVersion: 3
        time: 2.0166667
        value: 1
        inSlope: 0
        outSlope: 0
        tangentMode: 136
        weightedMode: 0
        inWeight: 0.33333334
        outWeight: 0.33333334
      m_PreInfinity: 2
      m_PostInfinity: 2
      m_RotationOrder: 4
    attribute: m_Color.g
    path: BtnJogar/Text
    classID: 114
    script: {fileID: 11500000, guid: 5f7201a12d95ffc409449d95f23cf332, type: 3}
  - curve:
      serializedVersion: 2
      m_Curve:
      - serializedVersion: 3
        time: 0.6166667
        value: 1
        inSlope: 0
        outSlope: 0
        tangentMode: 136
        weightedMode: 0
        inWeight: 0.33333334
        outWeight: 0.33333334
      - serializedVersion: 3
        time: 2.0166667
        value: 1
        inSlope: 0
        outSlope: 0
        tangentMode: 136
        weightedMode: 0
        inWeight: 0.33333334
        outWeight: 0.33333334
      m_PreInfinity: 2
      m_PostInfinity: 2
      m_RotationOrder: 4
    attribute: m_Color.b
    path: BtnJogar/Text
    classID: 114
    script: {fileID: 11500000, guid: 5f7201a12d95ffc409449d95f23cf332, type: 3}
  - curve:
      serializedVersion: 2
      m_Curve:
      - serializedVersion: 3
        time: 0.6166667
        value: 0
        inSlope: 0
        outSlope: 0
        tangentMode: 136
        weightedMode: 0
        inWeight: 0.33333334
        outWeight: 0.33333334
      - serializedVersion: 3
        time: 0.9166667
        value: 1
        inSlope: 0
        outSlope: 0
        tangentMode: 136
        weightedMode: 0
        inWeight: 0.33333334
        outWeight: 0.33333334
      - serializedVersion: 3
        time: 2.0166667
        value: 1
        inSlope: 0
        outSlope: 0
        tangentMode: 136
        weightedMode: 0
        inWeight: 0.33333334
        outWeight: 0.33333334
      m_PreInfinity: 2
      m_PostInfinity: 2
      m_RotationOrder: 4
    attribute: m_Color.a
    path: BtnJogar/Text
    classID: 114
    script: {fileID: 11500000, guid: 5f7201a12d95ffc409449d95f23cf332, type: 3}
  m_EulerEditorCurves: []
  m_HasGenericRootTransform: 0
  m_HasMotionFloatCurves: 0
  m_Events: []
